<svg width="160" height="45" viewBox="0 0 160 45" fill="none" xmlns="http://www.w3.org/2000/svg">
<g clip-path="url(#clip0)">
<path d="M34.5122 8.523C34.4813 8.29948 34.2843 8.17547 34.1208 8.16197C33.9585 8.14847 30.7798 8.10059 30.7798 8.10059C30.7798 8.10059 28.1214 5.54146 27.8588 5.28112C27.5962 5.02079 27.0833 5.09938 26.8839 5.15832C26.8814 5.15955 26.3847 5.31182 25.5485 5.56847C25.4085 5.11903 25.2028 4.56643 24.9092 4.01138C23.9629 2.22098 22.5767 1.2742 20.9018 1.27175C20.8993 1.27175 20.8981 1.27175 20.8956 1.27175C20.7792 1.27175 20.664 1.2828 20.5476 1.29262C20.498 1.23368 20.4484 1.17597 20.3964 1.11947C19.6668 0.345847 18.7315 -0.0311445 17.6104 0.00201107C15.4475 0.0634104 13.2933 1.6119 11.5466 4.36259C10.3178 6.29789 9.38247 8.72934 9.1174 10.6118C6.63364 11.3744 4.89687 11.9073 4.85847 11.9196C3.60483 12.3101 3.56519 12.3481 3.40167 13.5197C3.28028 14.405 0 39.5493 0 39.5493L27.4896 44.2623L39.4041 41.3262C39.4041 41.3262 34.5432 8.74652 34.5122 8.523ZM24.1722 5.99089C23.5392 6.18492 22.8194 6.40596 22.039 6.64542C22.0229 5.55988 21.8928 4.04945 21.3825 2.7441C23.0239 3.05233 23.8315 4.89308 24.1722 5.99089ZM20.6008 7.08749C19.1601 7.52953 17.5881 8.01214 16.0112 8.496C16.4546 6.81242 17.2958 5.13622 18.3289 4.03717C18.7129 3.62825 19.2505 3.17267 19.8873 2.91233C20.4856 4.15014 20.6157 5.90248 20.6008 7.08749ZM17.6537 1.42893C18.1616 1.41788 18.589 1.5284 18.9545 1.76663C18.3698 2.06748 17.8049 2.49974 17.2747 3.06338C15.9009 4.52468 14.8479 6.79277 14.428 8.98104C13.1186 9.38257 11.8377 9.7768 10.6584 10.1378C11.4029 6.69331 14.3152 1.52471 17.6537 1.42893Z" fill="#C1C1C1"/>
<path d="M34.1214 8.16322C33.9591 8.14972 30.7804 8.10184 30.7804 8.10184C30.7804 8.10184 28.122 5.5427 27.8594 5.28237C27.7616 5.18535 27.629 5.13501 27.4902 5.11414L27.4915 44.2611L39.4048 41.3262C39.4048 41.3262 34.5439 8.74778 34.5129 8.52425C34.4819 8.30073 34.2837 8.17672 34.1214 8.16322Z" fill="#6A6A6A"/>
<path d="M20.8875 14.2356L19.5039 19.3673C19.5039 19.3673 17.9604 18.6711 16.1307 18.7853C13.4475 18.9535 13.419 20.6309 13.4463 21.0522C13.5924 23.3472 19.6834 23.8483 20.0254 29.2244C20.2942 33.4536 17.7621 36.3467 14.114 36.5751C9.73487 36.8489 7.32422 34.2886 7.32422 34.2886L8.25208 30.3762C8.25208 30.3762 10.6788 32.1912 12.6212 32.0696C13.8897 31.9898 14.3431 30.9669 14.2972 30.2436C14.1065 27.2498 9.14644 27.4266 8.83306 22.5073C8.56917 18.3678 11.3119 14.173 17.3632 13.7948C19.6946 13.6462 20.8875 14.2356 20.8875 14.2356Z" fill="#121212"/>
<path d="M55.0933 24.9815C53.7233 24.2446 53.0192 23.6234 53.0192 22.7696C53.0192 21.6832 53.9972 20.9852 55.5245 20.9852C57.3024 20.9852 58.8898 21.7221 58.8898 21.7221L60.1418 17.9196C60.1418 17.9196 58.9906 17.0269 55.6019 17.0269C50.8862 17.0269 47.618 19.7039 47.618 23.4675C47.618 25.6013 49.144 27.231 51.1799 28.3942C52.8239 29.3247 53.4112 29.9849 53.4112 30.9544C53.4112 31.9629 52.5892 32.7777 51.0632 32.7777C48.7889 32.7777 46.6412 31.6133 46.6412 31.6133L45.3105 35.4158C45.3105 35.4158 47.2948 36.7349 50.6331 36.7349C55.4864 36.7349 58.9697 34.3683 58.9697 30.1005C58.9685 27.8132 57.2078 26.1835 55.0933 24.9815Z" fill="#818181"/>
<path d="M74.4278 16.9891C72.0403 16.9891 70.1617 18.1146 68.7144 19.8209L68.6357 19.7819L70.7097 9.03577H65.3084L60.0645 36.3865H65.4657L67.2657 27.0374C67.9697 23.5065 69.8091 21.3349 71.5317 21.3349C72.7443 21.3349 73.215 22.1497 73.215 23.314C73.215 24.0509 73.1363 24.9437 72.9803 25.6806L70.9456 36.3878H76.3471L78.4598 25.331C78.695 24.1666 78.852 22.7709 78.852 21.8391C78.8498 18.8124 77.2453 16.9891 74.4278 16.9891Z" fill="#818181"/>
<path d="M91.0609 16.989C84.5634 16.989 80.2598 22.8085 80.2598 29.2869C80.2598 33.4378 82.8421 36.7738 87.6957 36.7738C94.0748 36.7738 98.38 31.1102 98.38 24.4759C98.38 20.6356 96.1094 16.989 91.0609 16.989ZM88.3997 32.6631C86.56 32.6631 85.7772 31.1114 85.7772 29.1712C85.7772 26.1068 87.3824 21.1022 90.3174 21.1022C92.2352 21.1022 92.8603 22.7318 92.8603 24.3225C92.8603 27.6195 91.2573 32.6631 88.3997 32.6631Z" fill="#818181"/>
<path d="M112.194 16.989C108.548 16.989 106.48 20.1704 106.48 20.1704H106.402L106.715 17.2996H101.941C101.706 19.2398 101.275 22.1873 100.845 24.3992L97.0879 43.9903H102.489L103.975 36.0759H104.094C104.094 36.0759 105.202 36.7738 107.264 36.7738C113.604 36.7738 117.752 30.3344 117.752 23.8158C117.752 20.2094 116.146 16.989 112.194 16.989ZM107.028 32.7398C105.626 32.7398 104.796 31.964 104.796 31.964L105.697 26.9594C106.323 23.6233 108.084 21.4115 109.963 21.4115C111.607 21.4115 112.115 22.9242 112.115 24.3602C112.115 27.8131 110.041 32.7398 107.028 32.7398Z" fill="#818181"/>
<path d="M125.462 9.30725C123.741 9.30725 122.371 10.6653 122.371 12.4106C122.371 14.0013 123.388 15.0878 124.915 15.0878H124.993C126.676 15.0878 128.124 13.9623 128.163 11.9844C128.163 10.4326 127.106 9.30725 125.462 9.30725Z" fill="#818181"/>
<path d="M117.91 36.3864H123.31L126.99 17.4165H121.549L117.91 36.3864Z" fill="#818181"/>
<path d="M140.725 17.3776H136.968L137.163 16.4849C137.476 14.6615 138.573 13.0319 140.373 13.0319C141.333 13.0319 142.094 13.3035 142.094 13.3035L143.151 9.11371C143.151 9.11371 142.212 8.64844 140.215 8.64844C138.297 8.64844 136.381 9.19161 134.932 10.4327C133.092 11.9845 132.231 14.234 131.801 16.4849L131.646 17.3776H129.14L128.357 21.4128H130.863L128.006 36.3878H133.407L136.264 21.4128H139.982L140.725 17.3776Z" fill="#818181"/>
<path d="M153.719 17.4167C153.719 17.4167 150.343 25.8486 148.827 30.4514H148.748C148.645 28.9691 147.417 17.4167 147.417 17.4167H141.742L144.992 34.8348C145.071 35.2222 145.031 35.4561 144.874 35.7276C144.247 36.9298 143.191 38.0942 141.939 38.948C140.921 39.6848 139.786 40.1501 138.887 40.4606L140.374 45C141.47 44.7674 143.739 43.8747 145.657 42.0903C148.123 39.8017 150.392 36.2708 152.74 31.4598L159.354 17.4154H153.719V17.4167Z" fill="#818181"/>
</g>
<defs>
<clipPath id="clip0">
<rect width="160" height="45" fill="white"/>
</clipPath>
</defs>
</svg>
