[{
  "_id": {
    "$oid": "609429c491abf41940dfac85"
  },
  "title": "ESSAI GRATUIT",
  "subTitle": "Forfait pour étudiant ou essayez-le gratuitement pendant 3 mois!",
  "prise": "0.00$",
  "contente1": "Site web en ilimité",
  "contente2": "Repérer 500 mots clés",
  "contente3": "Générateur de schéma puissant",
  "contente4": "Suport 24/7",
  "contente5": "Renouveler à partir de 59$ + taxes",
  "about": "CHOISIR CE PLAN",
  "createdAt": {
    "$date": "2021-05-06T17:39:16.124Z"
  },
  "updatedAt": {
    "$date": "2021-05-06T17:39:16.124Z"
  },
  "__v": 0
},{
  "_id": {
    "$oid": "60942f5001a8ff311c2b3258"
  },
  "title": "PROFESSIONNEL",
  "subTitle": "Idéal pour travailleur autonome ou petite équipe",
  "prise": "49.00$",
  "contente1": "Site web en ilimité",
  "contente2": "Repérer 500 mots clés",
  "contente3": "Générateur de schéma puissant",
  "contente4": "Suport 24/7",
  "contente5": "Renouveler à partir de 59$ + taxes",
  "about": "CHOISIR CE PLAN",
  "createdAt": {
    "$date": "2021-05-06T18:02:56.209Z"
  },
  "updatedAt": {
    "$date": "2021-05-06T18:02:56.209Z"
  },
  "__v": 0
},{
  "_id": {
    "$oid": "60942f7901a8ff311c2b3259"
  },
  "title": "COMMERCIAL",
  "subTitle": "Pour les équipes de plus de 10 personnes",
  "prise": "99.00$",
  "contente1": "Site web en ilimité",
  "contente2": "Repérer 500 mots clés",
  "contente3": "Générateur de schéma puissant",
  "contente4": "Suport 24/7",
  "contente5": "Renouveler à partir de 59$ + taxes",
  "about": "CHOISIR CE PLAN",
  "createdAt": {
    "$date": "2021-05-06T18:03:37.191Z"
  },
  "updatedAt": {
    "$date": "2021-05-06T18:03:37.191Z"
  },
  "__v": 0
}]